<?xml version="1.0" encoding="UTF-8" standalone="no"?>
<!DOCTYPE svg PUBLIC "-//W3C//DTD SVG 1.1//EN"
 "http://www.w3.org/Graphics/SVG/1.1/DTD/svg11.dtd">
<!-- Generated by graphviz version 2.36.0 (20140111.2315)
 -->
<!-- Title: %3 Pages: 1 -->
<svg width="278pt" height="220pt"
 viewBox="0.00 0.00 278.00 220.00" xmlns="http://www.w3.org/2000/svg" xmlns:xlink="http://www.w3.org/1999/xlink">
<g id="graph0" class="graph" transform="scale(1 1) rotate(0) translate(4 216)">
<title>%3</title>
<polygon fill="white" stroke="none" points="-4,4 -4,-216 274,-216 274,4 -4,4"/>
<!-- Douarnenez -->
<g id="node1" class="node"><title>Douarnenez</title>
<ellipse fill="none" stroke="black" cx="53" cy="-106" rx="52.9443" ry="18"/>
<text text-anchor="middle" x="53" y="-102.3" font-family="Times,serif" font-size="14.00">Douarnenez</text>
</g>
<!-- Pouldreuzic -->
<g id="node2" class="node"><title>Pouldreuzic</title>
<ellipse fill="none" stroke="black" cx="56" cy="-18" rx="52.4675" ry="18"/>
<text text-anchor="middle" x="56" y="-14.3" font-family="Times,serif" font-size="14.00">Pouldreuzic</text>
</g>
<!-- Douarnenez&#45;&#45;Pouldreuzic -->
<g id="edge1" class="edge"><title>Douarnenez&#45;&#45;Pouldreuzic</title>
<path fill="none" stroke="black" d="M53.6071,-87.5966C54.131,-72.5778 54.8834,-51.009 55.404,-36.084"/>
<text text-anchor="middle" x="62" y="-58.3" font-family="Times,serif" font-size="14.00">17</text>
</g>
<!-- Plomelin -->
<g id="node3" class="node"><title>Plomelin</title>
<ellipse fill="none" stroke="black" cx="171" cy="-18" rx="42.3456" ry="18"/>
<text text-anchor="middle" x="171" y="-14.3" font-family="Times,serif" font-size="14.00">Plomelin</text>
</g>
<!-- Douarnenez&#45;&#45;Plomelin -->
<g id="edge2" class="edge"><title>Douarnenez&#45;&#45;Plomelin</title>
<path fill="none" stroke="black" d="M74.3689,-89.426C96.0201,-73.6464 129.275,-49.4096 150.58,-33.8826"/>
<text text-anchor="middle" x="136" y="-58.3" font-family="Times,serif" font-size="14.00">25</text>
</g>
<!-- Plouneour -->
<g id="node4" class="node"><title>Plouneour</title>
<ellipse fill="none" stroke="black" cx="171" cy="-106" rx="46.1964" ry="18"/>
<text text-anchor="middle" x="171" y="-102.3" font-family="Times,serif" font-size="14.00">Plouneour</text>
</g>
<!-- Plouneour&#45;&#45;Pouldreuzic -->
<g id="edge3" class="edge"><title>Plouneour&#45;&#45;Pouldreuzic</title>
<path fill="none" stroke="black" d="M150.44,-89.6249C129.637,-74.0679 97.6473,-50.1449 76.7694,-34.5319"/>
<text text-anchor="middle" x="106.5" y="-58.3" font-family="Times,serif" font-size="14.00">9</text>
</g>
<!-- Plouneour&#45;&#45;Plomelin -->
<g id="edge4" class="edge"><title>Plouneour&#45;&#45;Plomelin</title>
<path fill="none" stroke="black" d="M171,-87.5966C171,-72.5778 171,-51.009 171,-36.084"/>
<text text-anchor="middle" x="178" y="-58.3" font-family="Times,serif" font-size="14.00">11</text>
</g>
<!-- LaTorche -->
<g id="node5" class="node"><title>LaTorche</title>
<ellipse fill="none" stroke="black" cx="226" cy="-194" rx="44.271" ry="18"/>
<text text-anchor="middle" x="226" y="-190.3" font-family="Times,serif" font-size="14.00">LaTorche</text>
</g>
<!-- LaTorche&#45;&#45;Plomelin -->
<g id="edge5" class="edge"><title>LaTorche&#45;&#45;Plomelin</title>
<path fill="none" stroke="black" d="M232.214,-176.134C240.463,-152.418 254,-113.5 254,-113.5 254,-113.5 209.712,-62.5427 185.839,-35.0735"/>
<text text-anchor="middle" x="261" y="-102.3" font-family="Times,serif" font-size="14.00">20</text>
</g>
<!-- LaTorche&#45;&#45;Plouneour -->
<g id="edge6" class="edge"><title>LaTorche&#45;&#45;Plouneour</title>
<path fill="none" stroke="black" d="M215.395,-176.418C205.656,-161.19 191.301,-138.743 181.572,-123.531"/>
<text text-anchor="middle" x="210" y="-146.3" font-family="Times,serif" font-size="14.00">10</text>
</g>
</g>
</svg>
